<?xml version="1.0" encoding="UTF-8"?>
<svg width="24px" height="24px" viewBox="0 0 24 24" version="1.1" xmlns="http://www.w3.org/2000/svg" xmlns:xlink="http://www.w3.org/1999/xlink">
    <!-- Generator: Sketch 48.2 (47327) - http://www.bohemiancoding.com/sketch -->
    <title>inst_white</title>
    <desc>Created with Sketch.</desc>
    <defs></defs>
    <g id="Artboard" stroke="none" stroke-width="1" fill="none" fill-rule="evenodd" transform="translate(-7.000000, -37.000000)">
        <g id="inst_white" transform="translate(7.000000, 37.000000)">
            <g id="inst" transform="translate(3.000000, 3.000000)" fill="#FFFFFF" fill-rule="nonzero">
                <path d="M9.004,4.40979955 C6.46,4.40979955 4.408,6.46636971 4.408,9.01603563 C4.408,11.5657016 6.46,13.6222717 9.004,13.6222717 C11.548,13.6222717 13.6,11.5657016 13.6,9.01603563 C13.6,6.46636971 11.548,4.40979955 9.004,4.40979955 Z M9.004,12.0106904 C7.36,12.0106904 6.016,10.667706 6.016,9.01603563 C6.016,7.36436526 7.356,6.02138085 9.004,6.02138085 C10.652,6.02138085 11.992,7.36436526 11.992,9.01603563 C11.992,10.667706 10.648,12.0106904 9.004,12.0106904 Z M14.86,4.22138085 C14.86,4.81870824 14.38,5.29576837 13.788,5.29576837 C13.192,5.29576837 12.716,4.81469933 12.716,4.22138085 C12.716,3.62806236 13.196,3.14699332 13.788,3.14699332 C14.38,3.14699332 14.86,3.62806236 14.86,4.22138085 Z M17.904,5.31180401 C17.836,3.87260579 17.508,2.59777283 16.456,1.54743875 C15.408,0.497104677 14.136,0.168374165 12.7,0.0962138085 C11.22,0.0120267261 6.784,0.0120267261 5.304,0.0962138085 C3.872,0.164365256 2.6,0.493095768 1.548,1.54342984 C0.496,2.59376392 0.172,3.86859688 0.1,5.3077951 C0.016,6.79109131 0.016,11.236971 0.1,12.7202673 C0.168,14.1594655 0.496,15.4342984 1.548,16.4846325 C2.6,17.5349666 3.868,17.8636971 5.304,17.9358575 C6.784,18.0200445 11.22,18.0200445 12.7,17.9358575 C14.136,17.867706 15.408,17.5389755 16.456,16.4846325 C17.504,15.4342984 17.832,14.1594655 17.904,12.7202673 C17.988,11.236971 17.988,6.79510022 17.904,5.31180401 Z M15.992,14.311804 C15.68,15.0975501 15.076,15.7028953 14.288,16.0195991 C13.108,16.4886414 10.308,16.3804009 9.004,16.3804009 C7.7,16.3804009 4.896,16.4846325 3.72,16.0195991 C2.936,15.7069042 2.332,15.101559 2.016,14.311804 C1.548,13.1291759 1.656,10.3229399 1.656,9.01603563 C1.656,7.7091314 1.552,4.89888641 2.016,3.72026726 C2.328,2.93452116 2.932,2.32917595 3.72,2.01247216 C4.9,1.54342984 7.7,1.65167038 9.004,1.65167038 C10.308,1.65167038 13.112,1.54743875 14.288,2.01247216 C15.072,2.32516704 15.676,2.93051225 15.992,3.72026726 C16.46,4.90289532 16.352,7.7091314 16.352,9.01603563 C16.352,10.3229399 16.46,13.1331849 15.992,14.311804 Z" id="Shape"></path>
            </g>
            <rect id="Rectangle-Copy" x="0" y="0" width="24" height="24"></rect>
        </g>
    </g>
</svg>